{
    "topic": "demo-app",
    "language": "en-US",
    "srate": "8000",
    "port": "10001",
    "description": "Demo limited domain LVCSR related to telephony application.",
    "acoustic-model": {
        "s3path": "s3://spitch-data/Processed/en-US/AcousticModels/clean-speech_en-US_8KHz"
    },
    "language-models": {
        "ngram-models": [
            {
                "s3path": "s3://spitch-data/Processed/en-US/LanguageModels/demo-lm.o3.arpa.gz",
                "lambda": 1.0,
                "order": 3
            }
        ]
    },
    "lexicon": {
        "prefix-events": "{\"SIL\":1.0}",
        "suffix-events": "{\"SIL\":1.0}"
    },
    "tune": {
	"s3path": "s3://spitch-data/Processed/en-US/TestSets/demo-test.tgz",
	"force": true,
	"params": {
            "beam": [10],
            "asf": [0.045,0.05],
            "wip": [0.0]
	},
	"objective": {
            "optimize": "wer",
            "max-rtf" : 0.5
	}
    }
}
